[gd_resource type="AudioBusLayout" format=2]

[resource]

bus/0/name = "Master"
bus/0/solo = false
bus/0/mute = false
bus/0/bypass_fx = false
bus/0/volume_db = -12.2
bus/0/send = ""
bus/1/name = "musique"
bus/1/solo = false
bus/1/mute = false
bus/1/bypass_fx = false
bus/1/volume_db = -38.2
bus/1/send = "Master"
bus/2/name = "bruits_player"
bus/2/solo = false
bus/2/mute = false
bus/2/bypass_fx = false
bus/2/volume_db = 0.0
bus/2/send = "Master"
bus/3/name = "bruits_presences"
bus/3/solo = false
bus/3/mute = false
bus/3/bypass_fx = false
bus/3/volume_db = 0.0
bus/3/send = "Master"

