[gd_scene load_steps=3 format=2]

[ext_resource path="res://scenes/level1/Navigation2D.gd" type="Script" id=1]

[sub_resource type="NavigationPolygon" id=1]

vertices = PoolVector2Array( 3412.92, 1762.45, 4006.3, -2740.77, 3390.91, 3147.27, 3412.11, 1743.31, 3404.98, 1291.91, 3234.61, 1176.53, 2937.29, 1124.92, 1329.33, -79.4072, 1348.96, -161.728, -2785.55, -3482.73, 1352.95, -1404.99, 175.547, -1488.8, 2915.54, 1123.66, 2650.59, 1078.14, 2785.67, 1427.48, 2761.12, 1427.61, 273.332, -694.554, 172.82, -703.69, 83.0044, -1460.85, -1132.23, -1022.28, -3131.07, 2184.5, -819.806, -334.892, 2813.14, 1734.82, 2830.3, 1737.89, 2449.04, 1723.44, 2328.76, 1669.8, 793.994, 1101.21, 2614.84, 1282.95, 2517.31, 1255.32, 2551.44, 1061.89, 2442.54, 1042.38, 900.38, 867.198, 886.449, 897.81, 239.975, 350.061, 264.896, 325.713, -15.7185, 697.923, 631.623, -177.378, 642.518, -255.521, 3302.54, 1425.62, 3227.06, 1425.62, 3310.09, 1292.99 )
polygons = [ PoolIntArray( 0, 1, 2 ), PoolIntArray( 1, 0, 3, 4 ), PoolIntArray( 5, 6, 7, 8 ), PoolIntArray( 9, 1, 10, 11 ), PoolIntArray( 7, 6, 12, 13 ), PoolIntArray( 8, 10, 1, 4, 5 ), PoolIntArray( 12, 6, 14, 15 ), PoolIntArray( 11, 16, 17, 18 ), PoolIntArray( 9, 11, 18 ), PoolIntArray( 9, 18, 19 ), PoolIntArray( 20, 9, 19, 21 ), PoolIntArray( 22, 15, 14, 23 ), PoolIntArray( 0, 2, 20, 23 ), PoolIntArray( 22, 23, 20, 24 ), PoolIntArray( 25, 24, 20, 26 ), PoolIntArray( 13, 27, 28, 29 ), PoolIntArray( 7, 13, 29, 30 ), PoolIntArray( 31, 7, 30 ), PoolIntArray( 32, 31, 30, 25, 26 ), PoolIntArray( 31, 32, 33, 34 ), PoolIntArray( 35, 26, 20 ), PoolIntArray( 35, 20, 21, 17, 33 ), PoolIntArray( 36, 34, 33, 17, 16, 37 ), PoolIntArray( 38, 39, 5, 40 ), PoolIntArray( 7, 36, 37, 8 ), PoolIntArray( 5, 4, 40 ) ]
outlines = [ PoolVector2Array( 3412.11, 1743.31, 3404.98, 1291.91, 3310.09, 1292.99, 3302.54, 1425.62, 3227.06, 1425.62, 3234.61, 1176.53, 2937.29, 1124.92, 2785.67, 1427.48, 2830.3, 1737.89, 3412.92, 1762.45 ), PoolVector2Array( 2813.14, 1734.82, 2449.04, 1723.44, 2328.76, 1669.8, 2442.54, 1042.38, 2551.44, 1061.89, 2517.31, 1255.32, 2614.84, 1282.95, 2650.59, 1078.14, 2915.54, 1123.66, 2761.12, 1427.61 ), PoolVector2Array( 793.994, 1101.21, 886.449, 897.81, 239.975, 350.061, -15.7185, 697.923 ), PoolVector2Array( 264.896, 325.713, 900.38, 867.198, 1329.33, -79.4072, 631.623, -177.378 ), PoolVector2Array( 1348.96, -161.728, 642.518, -255.521, 273.332, -694.554, 175.547, -1488.8, 1352.95, -1404.99 ), PoolVector2Array( 172.82, -703.69, 83.0044, -1460.85, -1132.23, -1022.28, -819.806, -334.892 ), PoolVector2Array( -2785.55, -3482.73, 4006.3, -2740.77, 3390.91, 3147.27, -3131.07, 2184.5 ) ]

[node name="Navigation2D" type="Navigation2D" index="0"]

position = Vector2( -1275.29, 138.836 )
script = ExtResource( 1 )
CHARACTER_SPEED = 200.0

[node name="Navmesh" type="NavigationPolygonInstance" parent="." index="0"]

navpoly = SubResource( 1 )
enabled = true


